{
	"auth": {
		"twpropertymanagementd6fff74b": {
			"service": "Cognito",
			"providerPlugin": "awscloudformation",
			"dependsOn": []
		}
	},
	"api": {
		"twpropertymanagement": {
			"service": "AppSync",
			"providerPlugin": "awscloudformation",
			"output": {
				"authConfig": {
					"defaultAuthentication": {
						"authenticationType": "AMAZON_COGNITO_USER_POOLS",
						"userPoolConfig": {
							"userPoolId": "authtwpropertymanagementd6fff74b"
						}
					},
					"additionalAuthenticationProviders": []
				}
			}
		}
	}
}